[
    {
        "_id":1,
        "firstname":"Bharath",
        "lastname":"Kanagala",
        "mobilenumber":1234567890,
        "email": "S534865@gmail.com",
        "street1": "1121 N College Dr",
        "street2":"",
        "city": "Maryville",
        "state": "MO",
        "zip":"64468" ,
        "country":"USA"
      
    },
    {
        "_id":2,
        "firstname":"Satish",
        "lastname":"Gadge",
        "mobilenumber":6605001025,
        "email": "S534666@gmail.com",
        "street1": "1121 N College Dr",
        "street2":"",
        "city": "Maryville",
        "state": "MO",
        "zip":"64468" ,
        "country":"USA"
      
    },
    {
        "_id":3,
        "firstname":"Jing",
        "lastname":"Li",
        "mobilenumber":1122334455,
        "email": "jing@gmail.com",
        "street1": "1121 N College Dr",
        "street2":"",
        "city": "Maryville",
        "state": "MO",
        "zip":"64468" ,
        "country":"USA"
      
    },
    {
        "_id":4,
        "firstname":"Hong",
        "lastname":"Wang",
        "mobilenumber":2233445566,
        "email": "hong@gmail.com",
        "street1": "1121 N College Dr",
        "street2":"",
        "city": "Maryville",
        "state": "MO",
        "zip":"64468" ,
        "country":"USA"
      
    }
  ]